\relax 
\providecommand\HyperFirstAtBeginDocument{\AtBeginDocument}
\HyperFirstAtBeginDocument{\ifx\hyper@anchor\@undefined
\global\let\oldcontentsline\contentsline
\gdef\contentsline#1#2#3#4{\oldcontentsline{#1}{#2}{#3}}
\global\let\oldnewlabel\newlabel
\gdef\newlabel#1#2{\newlabelxx{#1}#2}
\gdef\newlabelxx#1#2#3#4#5#6{\oldnewlabel{#1}{{#2}{#3}}}
\AtEndDocument{\ifx\hyper@anchor\@undefined
\let\contentsline\oldcontentsline
\let\newlabel\oldnewlabel
\fi}
\fi}
\global\let\hyper@last\relax 
\gdef\HyperFirstAtBeginDocument#1{#1}
\providecommand\HyField@AuxAddToFields[1]{}
\providecommand\HyField@AuxAddToCoFields[2]{}
\@writefile{toc}{\contentsline {section}{Expérience professionnelle}{1}{section*.1}\protected@file@percent }
\@writefile{toc}{\contentsline {section}{Etudes et formations}{1}{section*.2}\protected@file@percent }
\@writefile{toc}{\contentsline {section}{Compétences informatiques}{2}{section*.3}\protected@file@percent }
\@writefile{toc}{\contentsline {section}{Atouts personnels}{3}{section*.4}\protected@file@percent }
\@writefile{toc}{\contentsline {section}{Langues}{3}{section*.5}\protected@file@percent }
\@writefile{toc}{\contentsline {section}{Centres d’intérêt et loisirs}{3}{section*.6}\protected@file@percent }
\newlabel{lastpage}{{}{3}{}{section*.6}{}}
\gdef \@abspage@last{3}
